{
    "KPlugin": {
        "Description": "Wacom tablet control daemon",
        "Description[ca@valencia]": "Dimoni de control de les tauletes Wacom",
        "Description[ca]": "Dimoni de control de les tauletes Wacom",
        "Description[en_GB]": "Wacom tablet control daemon",
        "Description[es]": "Servicio de control de la tableta Wacom",
        "Description[eu]": "Wacom tableta kontrolatzeko daimona",
        "Description[fr]": "Démon de contrôle pour les tablettes « Wacom »",
        "Description[ia]": "Tabletta de Wacom, daemon de controlo",
        "Description[it]": "Demone di controllo delle tavolette Wacom",
        "Description[ka]": "Wacom -ის ტაბლეტის კონტროლის დემონი",
        "Description[lt]": "„Wacom“ planšetės valdymo tarnyba",
        "Description[nl]": "Besturingsdaemon voor Wacom-tablet",
        "Description[nn]": "Styringsteneste for Wacom-teikneplate",
        "Description[pt]": "Servidor de controlo das tabletes Wacom",
        "Description[pt_BR]": "Servidor de controle da mesa digitalizadora Wacom",
        "Description[sl]": "Ozadnji program za nadzor tablice Wacom",
        "Description[tr]": "Wacom tablet yapılandırma ardalan süreci",
        "Description[uk]": "Фонова служба керування планшетними пристроями Wacom",
        "Description[x-test]": "xxWacom tablet control daemonxx",
        "Description[zh_CN]": "Wacom 数位板控制守护进程",
        "Icon": "preferences-desktop-tablet",
        "Name": "Wacom Tablet",
        "Name[ar]": "لوحيّّ واكُم",
        "Name[bs]": "Wacom Tablet",
        "Name[ca@valencia]": "Tauleta Wacom",
        "Name[ca]": "Tauleta Wacom",
        "Name[cs]": "Tablet Wacom",
        "Name[da]": "Wacom tegneplade",
        "Name[de]": "Wacom-Tablett",
        "Name[el]": "Wacom Tablet",
        "Name[en_GB]": "Wacom Tablet",
        "Name[es]": "Tableta Wacom",
        "Name[et]": "Wacomi graafikalaud",
        "Name[eu]": "Wacom Tableta",
        "Name[fi]": "Wacom-piirtopöytä",
        "Name[fr]": "Tablette « Wacom »",
        "Name[ga]": "Táibléad Wacom",
        "Name[gl]": "Tableta de Wacom",
        "Name[hu]": "Wacom rajztábla",
        "Name[ia]": "Tabletta Wacom",
        "Name[id]": "Tablet Wacom",
        "Name[it]": "Tavoletta Wacom",
        "Name[ja]": "Wacom タブレット",
        "Name[ka]": "Wacom -ის ტაბლეტი",
        "Name[kk]": "Wacom планшеті",
        "Name[km]": "Wacom Tablet",
        "Name[ko]": "와콤 태블릿",
        "Name[lt]": "„Wacom“ planšetė",
        "Name[mr]": "वेकॉम टॅब्लेट",
        "Name[nb]": "Wacom tegneplate",
        "Name[nds]": "Wacom-Tablett",
        "Name[nl]": "Wacom-tablet",
        "Name[nn]": "Wacom-teikneplate",
        "Name[pa]": "ਵਕੋਮ ਟੇਬਲੇਟ",
        "Name[pl]": "Tablet Wacom",
        "Name[pt]": "Tablete Wacom",
        "Name[pt_BR]": "Mesa digitalizadora Wacom",
        "Name[ro]": "Planșetă Wacom",
        "Name[ru]": "Планшет Wacom",
        "Name[sk]": "Wacom Tablet",
        "Name[sl]": "Tablica Wacom",
        "Name[sv]": "Wacom ritplatta",
        "Name[th]": "แท็บเล็ตของ Wacom",
        "Name[tr]": "Wacom Tablet",
        "Name[ug]": "Wacom سەزگۈر تاختا",
        "Name[uk]": "Планшет Wacom",
        "Name[x-test]": "xxWacom Tabletxx",
        "Name[zh_CN]": "Wacom 数位板",
        "Name[zh_TW]": "Wacom 平板裝置"
    },
    "X-KDE-DBus-ModuleName": "wacomtablet",
    "X-KDE-Kded-autoload": true,
    "X-KDE-Kded-load-on-demand": false,
    "X-KDE-Kded-phase": 1
}
